FIR/fir/fir.vcd
$date
   Sat Mar 22 07:33:49 2025
$end
$version
  2022.1
$end
$timescale
  1ps
$end
$scope module fir_tb $end
$var wire 1 ! awready $end
$var wire 1 " wready $end
$var reg 1 # awvalid $end
$var reg 12 $ awaddr [11:0] $end
$var reg 1 % wvalid $end
$var reg 32 & wdata [31:0] $end
$var wire 1 ' arready $end
$var reg 1 ( rready $end
$var reg 1 ) arvalid $end
$var reg 12 * araddr [11:0] $end
$var wire 1 + rvalid $end
$var wire 32 , rdata [31:0] $end
$var reg 1 - ss_tvalid $end
$var reg 32 . ss_tdata [31:0] $end
$var reg 1 / ss_tlast $end
$var wire 1 0 ss_tready $end
$var reg 1 1 sm_tready $end
$var wire 1 2 sm_tvalid $end
$var wire 32 3 sm_tdata [31:0] $end
$var wire 1 4 sm_tlast $end
$var reg 1 5 axis_clk $end
$var reg 1 6 axis_rst_n $end
$var wire 4 7 tap_WE [3:0] $end
$var wire 1 8 tap_EN $end
$var wire 32 9 tap_Di [31:0] $end
$var wire 12 : tap_A [11:0] $end
$var wire 32 ; tap_Do [31:0] $end
$var wire 4 < data_WE [3:0] $end
$var wire 1 = data_EN $end
$var wire 32 > data_Di [31:0] $end
$var wire 12 ? data_A [11:0] $end
$var wire 32 @ data_Do [31:0] $end
$var reg 32 A data_length [31:0] $end
$var reg 32 B coef_length [31:0] $end
$var integer 32 C Din [31:0] $end
$var integer 32 D golden [31:0] $end
$var integer 32 E coef_in [31:0] $end
$var integer 32 F input_data [31:0] $end
$var integer 32 G golden_data [31:0] $end
$var integer 32 H m [31:0] $end
$var integer 32 I n [31:0] $end
$var integer 32 J coef_data [31:0] $end
$var integer 32 K i [31:0] $end
$var reg 1 L error_coef $end
$var integer 32 M k [31:0] $end
$var integer 32 N l [31:0] $end
$var reg 1 O error $end
$scope module fir_DUT $end
$var wire 1 ! awready $end
$var wire 1 " wready $end
$var wire 1 P awvalid $end
$var wire 12 Q awaddr [11:0] $end
$var wire 1 R wvalid $end
$var wire 32 S wdata [31:0] $end
$var wire 1 ' arready $end
$var wire 1 T rready $end
$var wire 1 U arvalid $end
$var wire 12 V araddr [11:0] $end
$var wire 1 + rvalid $end
$var wire 32 , rdata [31:0] $end
$var wire 1 W ss_tvalid $end
$var wire 32 X ss_tdata [31:0] $end
$var wire 1 Y ss_tlast $end
$var wire 1 0 ss_tready $end
$var wire 1 Z sm_tready $end
$var reg 1 [ sm_tvalid $end
$var reg 32 \ sm_tdata [31:0] $end
$var wire 1 4 sm_tlast $end
$var reg 4 ] tap_WE [3:0] $end
$var reg 1 ^ tap_EN $end
$var reg 32 _ tap_Di [31:0] $end
$var reg 12 ` tap_A [11:0] $end
$var wire 32 ; tap_Do [31:0] $end
$var reg 4 a data_WE [3:0] $end
$var reg 1 b data_EN $end
$var reg 32 c data_Di [31:0] $end
$var reg 12 d data_A [11:0] $end
$var wire 32 @ data_Do [31:0] $end
$var wire 1 e axis_clk $end
$var wire 1 f axis_rst_n $end
$var wire 3 g ap_ctrl [2:0] $end
$var reg 1 h awready_reg $end
$var reg 1 i wready_reg $end
$var reg 1 j arready_reg $end
$var reg 1 k rvalid_reg $end
$var reg 12 l araddr_reg [11:0] $end
$var reg 32 m data_length_reg [31:0] $end
$var reg 32 n tap_num_reg [31:0] $end
$var reg 3 o ap_state [2:0] $end
$var reg 3 p ap_state_next [2:0] $end
$var reg 6 q tap_cnt [5:0] $end
$var reg 5 r x_w_cnt [4:0] $end
$var reg 5 s x_r_cnt [4:0] $end
$var reg 9 t y_cnt [8:0] $end
$var reg 2 u fir_state [1:0] $end
$var reg 2 v fir_state_next [1:0] $end
$var wire 32 w x [31:0] $end
$var wire 32 x h [31:0] $end
$var reg 32 y y [31:0] $end
$upscope $end
$scope module tap_RAM $end
$var wire 1 z CLK $end
$var wire 4 7 WE [3:0] $end
$var wire 1 8 EN $end
$var wire 32 9 Di [31:0] $end
$var wire 32 ; Do [31:0] $end
$var wire 12 : A [11:0] $end
$var reg 12 { r_A [11:0] $end
$upscope $end
$scope module data_RAM $end
$var wire 1 | CLK $end
$var wire 4 < WE [3:0] $end
$var wire 1 = EN $end
$var wire 32 > Di [31:0] $end
$var wire 32 @ Do [31:0] $end
$var wire 12 ? A [11:0] $end
$var reg 12 } r_A [11:0] $end
$upscope $end
$scope task config_write $end
$var reg 12 ~ addr [11:0] $end
$var reg 32 !! data [31:0] $end
$upscope $end
$scope task config_read_check $end
$var reg 12 "! addr [11:0] $end
$var reg 32 #! exp_data [31:0] $end
$var reg 32 $! mask [31:0] $end
$upscope $end
$scope task axi_stream_master $end
$var reg 32 %! in1 [31:0] $end
$upscope $end
$scope task sm $end
$var reg 32 &! in2 [31:0] $end
$var reg 32 '! pcnt [31:0] $end
$upscope $end
$upscope $end
$enddefinitions $end
#0
$dumpvars
0!
b110010 !!
0"
bx "!
x#
bx #!
bx $
bx $!
x%
b10101111101110 %!
bx &
bx &!
0'
bx '!
0(
0)
bx *
0+
b10x ,
0-
bx .
0/
00
x1
02
b0 3
04
05
06
b0 7
18
bx 9
bx :
bx ;
b0 <
1=
bx >
bx ?
bx @
b110010 A
b100000 B
b11111111111111111011000111100000 C
b11111111111111111011000111100001 D
b1 E
b1 F
b1 G
b110010 H
b100000 I
b11111111111111111011000111100010 J
b0 K
0L
bx M
bx N
xO
xP
bx Q
xR
bx S
0T
0U
bx V
0W
bx X
0Y
xZ
0[
b0 \
b0 ]
1^
bx _
bx `
b0 a
1b
bx c
bx d
0e
0f
b10x g
0h
0i
0j
0k
b0 l
b0 m
b0 n
b1 o
b1 p
b0 q
b0 r
bx s
b0 t
b1 u
b1 v
bx w
bx x
b0 y
0z
bx {
0|
bx }
b10000 ~
$end
#5000
1#
b10000 $
1%
b110010 &
b100 ,
1-
b10101111101110 .
15
b110010 9
b10101111101110 >
b1111100 ?
1P
b10000 Q
1R
b110010 S
1W
b10101111101110 X
0[
b0 \
b0 ]
1^
b110010 _
bx `
b0 a
1b
b10101111101110 c
b1111100 d
1e
b100 g
0h
0i
0j
0k
b0 l
b0 m
b0 n
b1 o
b1 p
b0 q
b0 r
b11111 s
b0 t
b1 u
b1 v
b0 y
1z
bx {
1|
bx }
#10000
05
0e
0z
0|
#15000
1!
1"
b101011111011100 &!
b0 '!
01
15
16
b10000 :
bx @
b0 N
0O
0Z
0[
b0 \
b0 ]
1^
b110010 _
b10000 `
1e
1f
1h
1i
0j
0k
b0 l
b110010 m
b0 n
b1 o
b0 q
b0 r
b11111 s
b0 t
b1 u
b1 v
bx y
1z
bx {
1|
b1111100 }
#20000
05
0e
0z
0|
#25000
b100000 !!
0#
b0 $
0%
b0 &
11
15
b0 9
b0 :
bx ;
0P
b0 Q
0R
b0 S
1Z
0[
b0 \
b0 ]
1^
b0 _
b0 `
1e
b100 g
1h
1i
0j
0k
b0 l
b110010 m
b0 n
b1 o
b0 q
b0 r
b11111 s
b0 t
b1 u
bx y
1z
b10000 {
1|
b1111100 }
b10100 ~
#30000
05
0e
0z
0|
#35000
0!
0"
1#
b10100 $
1%
b100000 &
15
b100000 9
bx ;
1P
b10100 Q
1R
b100000 S
0[
b0 \
b0 ]
1^
b100000 _
b0 `
1e
b100 g
0h
0i
0j
0k
b0 l
b110010 m
b0 n
b1 o
b0 q
b0 r
b11111 s
b0 t
b1 u
bx y
1z
b0 {
1|
b1111100 }
#40000
05
0e
0z
0|
#45000
1!
1"
15
b10100 :
0[
b0 \
b0 ]
1^
b100000 _
b10100 `
1e
1h
1i
0j
0k
b0 l
b110010 m
b100000 n
b1 o
b0 q
b0 r
b11111 s
b0 t
b1 u
b1 v
bx y
1z
b0 {
1|
b1111100 }
#50000
05
0e
0z
0|
#55000
b10 !!
0#
b0 $
0%
b0 &
15
b0 9
b0 :
bx ;
b0 M
0P
b0 Q
0R
b0 S
0[
b0 \
b0 ]
1^
b0 _
b0 `
1e
b100 g
1h
1i
0j
0k
b0 l
b110010 m
b100000 n
b1 o
b0 q
b0 r
b11111 s
b0 t
b1 u
bx y
1z
b10100 {
1|
b1111100 }
b10000000 ~
#60000
05
0e
0z
0|
#65000
0!
0"
1#
b10000000 $
1%
b10 &
15
b10 9
bx ;
1P
b10000000 Q
1R
b10 S
0[
b0 \
b0 ]
1^
b10 _
b0 `
1e
b100 g
0h
0i
0j
0k
b0 l
b110010 m
b100000 n
b1 o
b0 q
b0 r
b11111 s
b0 t
b1 u
bx y
1z
b0 {
1|
b1111100 }
#70000
05
0e
0z
0|
#75000
1!
1"
15
b1111 7
0[
b0 \
b1111 ]
1^
b10 _
b0 `
1e
1h
1i
0j
0k
b0 l
b110010 m
b100000 n
b1 o
b0 q
b0 r
b11111 s
b0 t
b1 u
bx y
1z
b0 {
1|
b1111100 }
#80000
05
0e
0z
0|
#85000
b11111111111111111111111111111011 !!
0#
b0 $
0%
b0 &
b100 ,
15
b0 7
b0 9
b10 ;
b1 M
0P
b0 Q
0R
b0 S
0[
b0 \
b0 ]
1^
b0 _
b0 `
1e
b100 g
1h
1i
0j
0k
b0 l
b110010 m
b100000 n
b1 o
b0 q
b0 r
b11111 s
b0 t
b1 u
b10 x
bx y
1z
b0 {
1|
b1111100 }
b10000100 ~
#90000
05
0e
0z
0|
#95000
0!
0"
1#
b10000100 $
1%
b11111111111111111111111111111011 &
15
b11111111111111111111111111111011 9
1P
b10000100 Q
1R
b11111111111111111111111111111011 S
0[
b0 \
b0 ]
1^
b11111111111111111111111111111011 _
b0 `
1e
b100 g
0h
0i
0j
0k
b0 l
b110010 m
b100000 n
b1 o
b0 q
b0 r
b11111 s
b0 t
b1 u
bx y
1z
b0 {
1|
b1111100 }
#100000
05
0e
0z
0|
#105000
1!
1"
15
b1111 7
b100 :
0[
b0 \
b1111 ]
1^
b11111111111111111111111111111011 _
b100 `
1e
1h
1i
0j
0k
b0 l
b110010 m
b100000 n
b1 o
b0 q
b0 r
b11111 s
b0 t
b1 u
bx y
1z
b0 {
1|
b1111100 }
#110000
05
0e
0z
0|
#115000
b11111111111111111111111111111101 !!
0#
b0 $
0%
b0 &
b100 ,
15
b0 7
b0 9
b0 :
b11111111111111111111111111111011 ;
b10 M
0P
b0 Q
0R
b0 S
0[
b0 \
b0 ]
1^
b0 _
b0 `
1e
b100 g
1h
1i
0j
0k
b0 l
b110010 m
b100000 n
b1 o
b0 q
b0 r
b11111 s
b0 t
b1 u
b11111111111111111111111111111011 x
bx y
1z
b100 {
1|
b1111100 }
b10001000 ~
#120000
05
0e
0z
0|
#125000
0!
0"
1#
b10001000 $
1%
b11111111111111111111111111111101 &
b100 ,
15
b11111111111111111111111111111101 9
b10 ;
1P
b10001000 Q
1R
b11111111111111111111111111111101 S
0[
b0 \
b0 ]
1^
b11111111111111111111111111111101 _
b0 `
1e
b100 g
0h
0i
0j
0k
b0 l
b110010 m
b100000 n
b1 o
b0 q
b0 r
b11111 s
b0 t
b1 u
b10 x
bx y
1z
b0 {
1|
b1111100 }
#130000
05
0e
0z
0|
#135000
1!
1"
15
b1111 7
b1000 :
0[
b0 \
b1111 ]
1^
b11111111111111111111111111111101 _
b1000 `
1e
1h
1i
0j
0k
b0 l
b110010 m
b100000 n
b1 o
b0 q
b0 r
b11111 s
b0 t
b1 u
bx y
1z
b0 {
1|
b1111100 }
#140000
05
0e
0z
0|
#145000
b11 !!
0#
b0 $
0%
b0 &
b100 ,
15
b0 7
b0 9
b0 :
b11111111111111111111111111111101 ;
b11 M
0P
b0 Q
0R
b0 S
0[
b0 \
b0 ]
1^
b0 _
b0 `
1e
b100 g
1h
1i
0j
0k
b0 l
b110010 m
b100000 n
b1 o
b0 q
b0 r
b11111 s
b0 t
b1 u
b11111111111111111111111111111101 x
bx y
1z
b1000 {
1|
b1111100 }
b10001100 ~
#150000
05
0e
0z
0|
#155000
0!
0"
1#
b10001100 $
1%
b11 &
b100 ,
15
b11 9
b10 ;
1P
b10001100 Q
1R
b11 S
0[
b0 \
b0 ]
1^
b11 _
b0 `
1e
b100 g
0h
0i
0j
0k
b0 l
b110010 m
b100000 n
b1 o
b0 q
b0 r
b11111 s
b0 t
b1 u
b10 x
bx y
1z
b0 {
1|
b1111100 }
#160000
05
0e
0z
0|
#165000
1!
1"
15
b1111 7
b1100 :
0[
b0 \
b1111 ]
1^
b11 _
b1100 `
1e
1h
1i
0j
0k
b0 l
b110010 m
b100000 n
b1 o
b0 q
b0 r
b11111 s
b0 t
b1 u
bx y
1z
b0 {
1|
b1111100 }
#170000
05
0e
0z
0|
#175000
b111 !!
0#
b0 $
0%
b0 &
b100 ,
15
b0 7
b0 9
b0 :
b11 ;
b100 M
0P
b0 Q
0R
b0 S
0[
b0 \
b0 ]
1^
b0 _
b0 `
1e
b100 g
1h
1i
0j
0k
b0 l
b110010 m
b100000 n
b1 o
b0 q
b0 r
b11111 s
b0 t
b1 u
b11 x
bx y
1z
b1100 {
1|
b1111100 }
b10010000 ~
#180000
05
0e
0z
0|
#185000
0!
0"
1#
b10010000 $
1%
b111 &
b100 ,
15
b111 9
b10 ;
1P
b10010000 Q
1R
b111 S
0[
b0 \
b0 ]
1^
b111 _
b0 `
1e
b100 g
0h
0i
0j
0k
b0 l
b110010 m
b100000 n
b1 o
b0 q
b0 r
b11111 s
b0 t
b1 u
b10 x
bx y
1z
b0 {
1|
b1111100 }
#190000
05
0e
0z
0|
#195000
1!
1"
15
b1111 7
b10000 :
0[
b0 \
b1111 ]
1^
b111 _
b10000 `
1e
1h
1i
0j
0k
b0 l
b110010 m
b100000 n
b1 o
b0 q
b0 r
b11111 s
b0 t
b1 u
bx y
1z
b0 {
1|
b1111100 }
#200000
05
0e
0z
0|
#205000
b1 !!
0#
b0 $
0%
b0 &
b100 ,
15
b0 7
b0 9
b0 :
b111 ;
b101 M
0P
b0 Q
0R
b0 S
0[
b0 \
b0 ]
1^
b0 _
b0 `
1e
b100 g
1h
1i
0j
0k
b0 l
b110010 m
b100000 n
b1 o
b0 q
b0 r
b11111 s
b0 t
b1 u
b111 x
bx y
1z
b10000 {
1|
b1111100 }
b10010100 ~
#210000
05
0e
0z
0|
#215000
0!
0"
1#
b10010100 $
1%
b1 &
b100 ,
15
b1 9
b10 ;
1P
b10010100 Q
1R
b1 S
0[
b0 \
b0 ]
1^
b1 _
b0 `
1e
b100 g
0h
0i
0j
0k
b0 l
b110010 m
b100000 n
b1 o
b0 q
b0 r
b11111 s
b0 t
b1 u
b10 x
bx y
1z
b0 {
1|
b1111100 }
#220000
05
0e
0z
0|
#225000
1!
1"
15
b1111 7
b10100 :
0[
b0 \
b1111 ]
1^
b1 _
b10100 `
1e
1h
1i
0j
0k
b0 l
b110010 m
b100000 n
b1 o
b0 q
b0 r
b11111 s
b0 t
b1 u
bx y
1z
b0 {
1|
b1111100 }
#230000
05
0e
0z
0|
#235000
b11111111111111111111111111111101 !!
0#
b0 $
0%
b0 &
b100 ,
15
b0 7
b0 9
b0 :
b1 ;
b110 M
0P
b0 Q
0R
b0 S
0[
b0 \
b0 ]
1^
b0 _
b0 `
1e
b100 g
1h
1i
0j
0k
b0 l
b110010 m
b100000 n
b1 o
b0 q
b0 r
b11111 s
b0 t
b1 u
b1 x
bx y
1z
b10100 {
1|
b1111100 }
b10011000 ~
#240000
05
0e
0z
0|
#245000
0!
0"
1#
b10011000 $
1%
b11111111111111111111111111111101 &
b100 ,
15
b11111111111111111111111111111101 9
b10 ;
1P
b10011000 Q
1R
b11111111111111111111111111111101 S
0[
b0 \
b0 ]
1^
b11111111111111111111111111111101 _
b0 `
1e
b100 g
0h
0i
0j
0k
b0 l
b110010 m
b100000 n
b1 o
b0 q
b0 r
b11111 s
b0 t
b1 u
b10 x
bx y
1z
b0 {
1|
b1111100 }
#250000
05
0e
0z
0|
#255000
1!
1"
15
b1111 7
b11000 :
0[
b0 \
b1111 ]
1^
b11111111111111111111111111111101 _
b11000 `
1e
1h
1i
0j
0k
b0 l
b110010 m
b100000 n
b1 o
b0 q
b0 r
b11111 s
b0 t
b1 u
bx y
1z
b0 {
1|
b1111100 }
#260000
05
0e
0z
0|
#265000
b11111111111111111111111111110110 !!
0#
b0 $
0%
b0 &
b100 ,
15
b0 7
b0 9
b0 :
b11111111111111111111111111111101 ;
b111 M
0P
b0 Q
0R
b0 S
0[
b0 \
b0 ]
1^
b0 _
b0 `
1e
b100 g
1h
1i
0j
0k
b0 l
b110010 m
b100000 n
b1 o
b0 q
b0 r
b11111 s
b0 t
b1 u
b11111111111111111111111111111101 x
bx y
1z
b11000 {
1|
b1111100 }
b10011100 ~
#270000
05
0e
0z
0|
#275000
0!
0"
1#
b10011100 $
1%
b11111111111111111111111111110110 &
b100 ,
15
b11111111111111111111111111110110 9
b10 ;
1P
b10011100 Q
1R
b11111111111111111111111111110110 S
0[
b0 \
b0 ]
1^
b11111111111111111111111111110110 _
b0 `
1e
b100 g
0h
0i
0j
0k
b0 l
b110010 m
b100000 n
b1 o
b0 q
b0 r
b11111 s
b0 t
b1 u
b10 x
bx y
1z
b0 {
1|
b1111100 }
#280000
05
0e
0z
0|
#285000
1!
1"
15
b1111 7
b11100 :
0[
b0 \
b1111 ]
1^
b11111111111111111111111111110110 _
b11100 `
1e
1h
1i
0j
0k
b0 l
b110010 m
b100000 n
b1 o
b0 q
b0 r
b11111 s
b0 t
b1 u
bx y
1z
b0 {
1|
b1111100 }
#290000
05
0e
0z
0|
#295000
b100 !!
0#
b0 $
0%
b0 &
b100 ,
15
b0 7
b0 9
b0 :
b11111111111111111111111111110110 ;
b1000 M
0P
b0 Q
0R
b0 S
0[
b0 \
b0 ]
1^
b0 _
b0 `
1e
b100 g
1h
1i
0j
0k
b0 l
b110010 m
b100000 n
b1 o
b0 q
b0 r
b11111 s
b0 t
b1 u
b11111111111111111111111111110110 x
bx y
1z
b11100 {
1|
b1111100 }
b10100000 ~
#300000
05
0e
0z
0|
#305000
0!
0"
1#
b10100000 $
1%
b100 &
b100 ,
15
b100 9
b10 ;
1P
b10100000 Q
1R
b100 S
0[
b0 \
b0 ]
1^
b100 _
b0 `
1e
b100 g
0h
0i
0j
0k
b0 l
b110010 m
b100000 n
b1 o
b0 q
b0 r
b11111 s
b0 t
b1 u
b10 x
bx y
1z
b0 {
1|
b1111100 }
#310000
05
0e
0z
0|
#315000
1!
1"
15
b1111 7
b100000 :
0[
b0 \
b1111 ]
1^
b100 _
b100000 `
1e
1h
1i
0j
0k
b0 l
b110010 m
b100000 n
b1 o
b0 q
b0 r
b11111 s
b0 t
b1 u
bx y
1z
b0 {
1|
b1111100 }
#320000
05
0e
0z
0|
#325000
b111 !!
0#
b0 $
0%
b0 &
b100 ,
15
b0 7
b0 9
b0 :
b100 ;
b1001 M
0P
b0 Q
0R
b0 S
0[
b0 \
b0 ]
1^
b0 _
b0 `
1e
b100 g
1h
1i
0j
0k
b0 l
b110010 m
b100000 n
b1 o
b0 q
b0 r
b11111 s
b0 t
b1 u
b100 x
bx y
1z
b100000 {
1|
b1111100 }
b10100100 ~
#330000
05
0e
0z
0|
#335000
0!
0"
1#
b10100100 $
1%
b111 &
b100 ,
15
b111 9
b10 ;
1P
b10100100 Q
1R
b111 S
0[
b0 \
b0 ]
1^
b111 _
b0 `
1e
b100 g
0h
0i
0j
0k
b0 l
b110010 m
b100000 n
b1 o
b0 q
b0 r
b11111 s
b0 t
b1 u
b10 x
bx y
1z
b0 {
1|
b1111100 }
#340000
05
0e
0z
0|
#345000
1!
1"
15
b1111 7
b100100 :
0[
b0 \
b1111 ]
1^
b111 _
b100100 `
1e
1h
1i
0j
0k
b0 l
b110010 m
b100000 n
b1 o
b0 q
b0 r
b11111 s
b0 t
b1 u
bx y
1z
b0 {
1|
b1111100 }
#350000
05
0e
0z
0|
#355000
b11111111111111111111111111111011 !!
0#
b0 $
0%
b0 &
b100 ,
15
b0 7
b0 9
b0 :
b111 ;
b1010 M
0P
b0 Q
0R
b0 S
0[
b0 \
b0 ]
1^
b0 _
b0 `
1e
b100 g
1h
1i
0j
0k
b0 l
b110010 m
b100000 n
b1 o
b0 q
b0 r
b11111 s
b0 t
b1 u
b111 x
bx y
1z
b100100 {
1|
b1111100 }
b10101000 ~
#360000
05
0e
0z
0|
#365000
0!
0"
1#
b10101000 $
1%
b11111111111111111111111111111011 &
b100 ,
15
b11111111111111111111111111111011 9
b10 ;
1P
b10101000 Q
1R
b11111111111111111111111111111011 S
0[
b0 \
b0 ]
1^
b11111111111111111111111111111011 _
b0 `
1e
b100 g
0h
0i
0j
0k
b0 l
b110010 m
b100000 n
b1 o
b0 q
b0 r
b11111 s
b0 t
b1 u
b10 x
bx y
1z
b0 {
1|
b1111100 }
#370000
05
0e
0z
0|
#375000
1!
1"
15
b1111 7
b101000 :
0[
b0 \
b1111 ]
1^
b11111111111111111111111111111011 _
b101000 `
1e
1h
1i
0j
0k
b0 l
b110010 m
b100000 n
b1 o
b0 q
b0 r
b11111 s
b0 t
b1 u
bx y
1z
b0 {
1|
b1111100 }
#380000
05
0e
0z
0|
#385000
b11111111111111111111111111111100 !!
0#
b0 $
0%
b0 &
b100 ,
15
b0 7
b0 9
b0 :
b11111111111111111111111111111011 ;
b1011 M
0P
b0 Q
0R
b0 S
0[
b0 \
b0 ]
1^
b0 _
b0 `
1e
b100 g
1h
1i
0j
0k
b0 l
b110010 m
b100000 n
b1 o
b0 q
b0 r
b11111 s
b0 t
b1 u
b11111111111111111111111111111011 x
bx y
1z
b101000 {
1|
b1111100 }
b10101100 ~
#390000
05
0e
0z
0|
#395000
0!
0"
1#
b10101100 $
1%
b11111111111111111111111111111100 &
b100 ,
15
b11111111111111111111111111111100 9
b10 ;
1P
b10101100 Q
1R
b11111111111111111111111111111100 S
0[
b0 \
b0 ]
1^
b11111111111111111111111111111100 _
b0 `
1e
b100 g
0h
0i
0j
0k
b0 l
b110010 m
b100000 n
b1 o
b0 q
b0 r
b11111 s
b0 t
b1 u
b10 x
bx y
1z
b0 {
1|
b1111100 }
#400000
05
0e
0z
0|
#405000
1!
1"
15
b1111 7
b101100 :
0[
b0 \
b1111 ]
1^
b11111111111111111111111111111100 _
b101100 `
1e
1h
1i
0j
0k
b0 l
b110010 m
b100000 n
b1 o
b0 q
b0 r
b11111 s
b0 t
b1 u
bx y
1z
b0 {
1|
b1111100 }
#410000
05
0e
0z
0|
#415000
b11111111111111111111111111111111 !!
0#
b0 $
0%
b0 &
b100 ,
15
b0 7
b0 9
b0 :
b11111111111111111111111111111100 ;
b1100 M
0P
b0 Q
0R
b0 S
0[
b0 \
b0 ]
1^
b0 _
b0 `
1e
b100 g
1h
1i
0j
0k
b0 l
b110010 m
b100000 n
b1 o
b0 q
b0 r
b11111 s
b0 t
b1 u
b11111111111111111111111111111100 x
bx y
1z
b101100 {
1|
b1111100 }
b10110000 ~
#420000
05
0e
0z
0|
#425000
0!
0"
1#
b10110000 $
1%
b11111111111111111111111111111111 &
b100 ,
15
b11111111111111111111111111111111 9
b10 ;
1P
b10110000 Q
1R
b11111111111111111111111111111111 S
0[
b0 \
b0 ]
1^
b11111111111111111111111111111111 _
b0 `
1e
b100 g
0h
0i
0j
0k
b0 l
b110010 m
b100000 n
b1 o
b0 q
b0 r
b11111 s
b0 t
b1 u
b10 x
bx y
1z
b0 {
1|
b1111100 }
#430000
05
0e
0z
0|
#435000
1!
1"
15
b1111 7
b110000 :
0[
b0 \
b1111 ]
1^
b11111111111111111111111111111111 _
b110000 `
1e
1h
1i
0j
0k
b0 l
b110010 m
b100000 n
b1 o
b0 q
b0 r
b11111 s
b0 t
b1 u
bx y
1z
b0 {
1|
b1111100 }
#440000
05
0e
0z
0|
#445000
b1000 !!
0#
b0 $
0%
b0 &
b100 ,
15
b0 7
b0 9
b0 :
b11111111111111111111111111111111 ;
b1101 M
0P
b0 Q
0R
b0 S
0[
b0 \
b0 ]
1^
b0 _
b0 `
1e
b100 g
1h
1i
0j
0k
b0 l
b110010 m
b100000 n
b1 o
b0 q
b0 r
b11111 s
b0 t
b1 u
b11111111111111111111111111111111 x
bx y
1z
b110000 {
1|
b1111100 }
b10110100 ~
#450000
05
0e
0z
0|
#455000
0!
0"
1#
b10110100 $
1%
b1000 &
b100 ,
15
b1000 9
b10 ;
1P
b10110100 Q
1R
b1000 S
0[
b0 \
b0 ]
1^
b1000 _
b0 `
1e
b100 g
0h
0i
0j
0k
b0 l
b110010 m
b100000 n
b1 o
b0 q
b0 r
b11111 s
b0 t
b1 u
b10 x
bx y
1z
b0 {
1|
b1111100 }
#460000
05
0e
0z
0|
#465000
1!
1"
15
b1111 7
b110100 :
0[
b0 \
b1111 ]
1^
b1000 _
b110100 `
1e
1h
1i
0j
0k
b0 l
b110010 m
b100000 n
b1 o
b0 q
b0 r
b11111 s
b0 t
b1 u
bx y
1z
b0 {
1|
b1111100 }
#470000
05
0e
0z
0|
#475000
b11111111111111111111111111110111 !!
0#
b0 $
0%
b0 &
b100 ,
15
b0 7
b0 9
b0 :
b1000 ;
b1110 M
0P
b0 Q
0R
b0 S
0[
b0 \
b0 ]
1^
b0 _
b0 `
1e
b100 g
1h
1i
0j
0k
b0 l
b110010 m
b100000 n
b1 o
b0 q
b0 r
b11111 s
b0 t
b1 u
b1000 x
bx y
1z
b110100 {
1|
b1111100 }
b10111000 ~
#480000
05
0e
0z
0|
#485000
0!
0"
1#
b10111000 $
1%
b11111111111111111111111111110111 &
b100 ,
15
b11111111111111111111111111110111 9
b10 ;
1P
b10111000 Q
1R
b11111111111111111111111111110111 S
0[
b0 \
b0 ]
1^
b11111111111111111111111111110111 _
b0 `
1e
b100 g
0h
0i
0j
0k
b0 l
b110010 m
b100000 n
b1 o
b0 q
b0 r
b11111 s
b0 t
b1 u
b10 x
bx y
1z
b0 {
1|
b1111100 }
#490000
05
0e
0z
0|
#495000
1!
1"
15
b1111 7
b111000 :
0[
b0 \
b1111 ]
1^
b11111111111111111111111111110111 _
b111000 `
1e
1h
1i
0j
0k
b0 l
b110010 m
b100000 n
b1 o
b0 q
b0 r
b11111 s
b0 t
b1 u
bx y
1z
b0 {
1|
b1111100 }
#500000
05
0e
0z
0|
#505000
b111 !!
0#
b0 $
0%
b0 &
b100 ,
15
b0 7
b0 9
b0 :
b11111111111111111111111111110111 ;
b1111 M
0P
b0 Q
0R
b0 S
0[
b0 \
b0 ]
1^
b0 _
b0 `
1e
b100 g
1h
1i
0j
0k
b0 l
b110010 m
b100000 n
b1 o
b0 q
b0 r
b11111 s
b0 t
b1 u
b11111111111111111111111111110111 x
bx y
1z
b111000 {
1|
b1111100 }
b10111100 ~
#510000
05
0e
0z
0|
#515000
0!
0"
1#
b10111100 $
1%
b111 &
b100 ,
15
b111 9
b10 ;
1P
b10111100 Q
1R
b111 S
0[
b0 \
b0 ]
1^
b111 _
b0 `
1e
b100 g
0h
0i
0j
0k
b0 l
b110010 m
b100000 n
b1 o
b0 q
b0 r
b11111 s
b0 t
b1 u
b10 x
bx y
1z
b0 {
1|
b1111100 }
#520000
05
0e
0z
0|
#525000
1!
1"
15
b1111 7
b111100 :
0[
b0 \
b1111 ]
1^
b111 _
b111100 `
1e
1h
1i
0j
0k
b0 l
b110010 m
b100000 n
b1 o
b0 q
b0 r
b11111 s
b0 t
b1 u
bx y
1z
b0 {
1|
b1111100 }
#530000
05
0e
0z
0|
#535000
b11111111111111111111111111110110 !!
0#
b0 $
0%
b0 &
b100 ,
15
b0 7
b0 9
b0 :
b111 ;
b10000 M
0P
b0 Q
0R
b0 S
0[
b0 \
b0 ]
1^
b0 _
b0 `
1e
b100 g
1h
1i
0j
0k
b0 l
b110010 m
b100000 n
b1 o
b0 q
b0 r
b11111 s
b0 t
b1 u
b111 x
bx y
1z
b111100 {
1|
b1111100 }
b11000000 ~
#540000
05
0e
0z
0|
#545000
0!
0"
1#
b11000000 $
1%
b11111111111111111111111111110110 &
b100 ,
15
b11111111111111111111111111110110 9
b10 ;
1P
b11000000 Q
1R
b11111111111111111111111111110110 S
0[
b0 \
b0 ]
1^
b11111111111111111111111111110110 _
b0 `
1e
b100 g
0h
0i
0j
0k
b0 l
b110010 m
b100000 n
b1 o
b0 q
b0 r
b11111 s
b0 t
b1 u
b10 x
bx y
1z
b0 {
1|
b1111100 }
#550000
05
0e
0z
0|
#555000
1!
1"
15
b1111 7
b1000000 :
0[
b0 \
b1111 ]
1^
b11111111111111111111111111110110 _
b1000000 `
1e
1h
1i
0j
0k
b0 l
b110010 m
b100000 n
b1 o
b0 q
b0 r
b11111 s
b0 t
b1 u
bx y
1z
b0 {
1|
b1111100 }
#560000
05
0e
0z
0|
#565000
b11111111111111111111111111111111 !!
0#
b0 $
0%
b0 &
b100 ,
15
b0 7
b0 9
b0 :
b11111111111111111111111111110110 ;
b10001 M
0P
b0 Q
0R
b0 S
0[
b0 \
b0 ]
1^
b0 _
b0 `
1e
b100 g
1h
1i
0j
0k
b0 l
b110010 m
b100000 n
b1 o
b0 q
b0 r
b11111 s
b0 t
b1 u
b11111111111111111111111111110110 x
bx y
1z
b1000000 {
1|
b1111100 }
b11000100 ~
#570000
05
0e
0z
0|
#575000
0!
0"
1#
b11000100 $
1%
b11111111111111111111111111111111 &
b100 ,
15
b11111111111111111111111111111111 9
b10 ;
1P
b11000100 Q
1R
b11111111111111111111111111111111 S
0[
b0 \
b0 ]
1^
b11111111111111111111111111111111 _
b0 `
1e
b100 g
0h
0i
0j
0k
b0 l
b110010 m
b100000 n
b1 o
b0 q
b0 r
b11111 s
b0 t
b1 u
b10 x
bx y
1z
b0 {
1|
b1111100 }
#580000
05
0e
0z
0|
